{
  "version": 1,
  "license": "CC-BY-SA-3.0",
  "copyright": "Taken from discord user blazeba",
  "size": {
    "x": 32,
    "y": 32
  },
  "states": [
    {
      "name": "normal-unshaded",
      "delays": [
        [
          1,
          0.1,
          1,
          0.1,
          1,
          0.1,
          1,
          0.1
        ]
      ]
    },
    {
      "name": "deny-unshaded",
      "delays": [
        [
          1,
          0.1
        ]
      ]
    },
    {
      "name": "off"
    },
    {
      "name": "broken"
    },
    {
      "name": "panel"
    }
  ]
}
