{
  "version": 1,
  "license": "CC-BY-SA-3.0",
  "copyright": "taken from Adventure Time Space Station 14, sptire by JustKekc",
  "size": {
    "x": 32,
    "y": 32
  },
    "states": [
        {
            "name": "tail_fox_wag_stripes_prime",
            "directions": 4,
            "delays": [
                [
                    0.15,
                    0.15,
                    0.15,
                    0.15,
                    0.15,
                    0.15,
                    0.15,
                    0.15,
                    0.15,
                    0.15
                ],
                [
                    0.15,
                    0.15,
                    0.15,
                    0.15,
                    0.15,
                    0.15,
                    0.15,
                    0.15,
                    0.15,
                    0.15
                ],
                [
                    0.15,
                    0.15,
                    0.15,
                    0.15,
                    0.15,
                    0.15,
                    0.15,
                    0.15,
                    0.15,
                    0.15
                ],
                [
                    0.15,
                    0.15,
                    0.15,
                    0.15,
                    0.15,
                    0.15,
                    0.15,
                    0.15,
                    0.15,
                    0.15
                ]
            ]
        },
        {
            "name": "tail_fox_wag_stripes_second",
            "directions": 4,
            "delays": [
                [
                    0.15,
                    0.15,
                    0.15,
                    0.15,
                    0.15,
                    0.15,
                    0.15,
                    0.15,
                    0.15,
                    0.15
                ],
                [
                    0.15,
                    0.15,
                    0.15,
                    0.15,
                    0.15,
                    0.15,
                    0.15,
                    0.15,
                    0.15,
                    0.15
                ],
                [
                    0.15,
                    0.15,
                    0.15,
                    0.15,
                    0.15,
                    0.15,
                    0.15,
                    0.15,
                    0.15,
                    0.15
                ],
                [
                    0.15,
                    0.15,
                    0.15,
                    0.15,
                    0.15,
                    0.15,
                    0.15,
                    0.15,
                    0.15,
                    0.15
                ]
            ]
        },
        {
            "name": "tail_fox_wag_stripes_third",
            "directions": 4,
            "delays": [
                [
                    0.15,
                    0.15,
                    0.15,
                    0.15,
                    0.15,
                    0.15,
                    0.15,
                    0.15,
                    0.15,
                    0.15
                ],
                [
                    0.15,
                    0.15,
                    0.15,
                    0.15,
                    0.15,
                    0.15,
                    0.15,
                    0.15,
                    0.15,
                    0.15
                ],
                [
                    0.15,
                    0.15,
                    0.15,
                    0.15,
                    0.15,
                    0.15,
                    0.15,
                    0.15,
                    0.15,
                    0.15
                ],
                [
                    0.15,
                    0.15,
                    0.15,
                    0.15,
                    0.15,
                    0.15,
                    0.15,
                    0.15,
                    0.15,
                    0.15
                ]
            ]
        }

    ]
}
